<svg xmlns="http://www.w3.org/2000/svg" viewBox="0 0 17.999 17.999">
  <defs>
    <style>
      .cls-1 {
        fill: #747474;
      }
    </style>
  </defs>
  <g id="_015__circle_plus" data-name="015__circle_plus" transform="translate(-11.5 -11.5)">
    <g id="Group_74" data-name="Group 74" transform="translate(11.5 11.5)">
      <g id="Group_70" data-name="Group 70">
        <path id="Path_400" data-name="Path 400" class="cls-1" d="M20.5,29.5a9,9,0,1,1,9-9A8.992,8.992,0,0,1,20.5,29.5Zm0-16.94A7.941,7.941,0,1,0,28.44,20.5,8,8,0,0,0,20.5,12.559Z" transform="translate(-11.5 -11.5)"/>
      </g>
      <g id="Group_73" data-name="Group 73" transform="translate(5.823 5.823)">
        <g id="Group_71" data-name="Group 71" transform="translate(0 2.647)">
          <path id="Path_401" data-name="Path 401" class="cls-1" d="M22.823,20.559H17.529a.529.529,0,1,1,0-1.059h5.294a.529.529,0,0,1,0,1.059Z" transform="translate(-17 -19.5)"/>
        </g>
        <g id="Group_72" data-name="Group 72" transform="translate(2.647)">
          <path id="Path_402" data-name="Path 402" class="cls-1" d="M20.029,23.352a.5.5,0,0,1-.529-.529V17.529a.529.529,0,0,1,1.059,0v5.294A.5.5,0,0,1,20.029,23.352Z" transform="translate(-19.5 -17)"/>
        </g>
      </g>
    </g>
  </g>
</svg>
